 {"slike" :
     [
        {   "src" : "https://cdn.pixabay.com/photo/2018/05/04/01/29/sunset-3373038_960_720.jpg"
        },
        {
            "src" : "https://images.unsplash.com/photo-1442850473887-0fb77cd0b337?ixlib=rb-1.2.1&ixid=eyJhcHBfaWQiOjEyMDd9&w=1000&q=80"
        },

        {
            "src" : "https://images.unsplash.com/photo-1570814628289-9db351a291fa?ixlib=rb-1.2.1&ixid=eyJhcHBfaWQiOjEyMDd9&w=1000&q=80"
        },
        {
            "src" : "https://images.unsplash.com/photo-1552335270-a1cdfc205557?ixlib=rb-1.2.1&ixid=eyJhcHBfaWQiOjEyMDd9&w=1000&q=80"
        },
        {
            "src" : "https://images.unsplash.com/photo-1486140525285-12e658d9ac0f?ixlib=rb-1.2.1&ixid=eyJhcHBfaWQiOjEyMDd9&w=1000&q=80"
        },
        {
            "src" : "https://sattvayogaacademy.com/wp-content/uploads/2018/06/slide-2.jpg"
        },
        {
            "src" : "https://cache.desktopnexus.com/thumbseg/1145/1145352-bigthumbnail.jpg"
        },
        {
            "src" : "https://pbs.twimg.com/media/Dy9BftkWkAAwuLJ.jpg"
        },
        {
            "src" : " http://s3.favim.com/orig/47/beautiful-forest-nature-sky-snow-Favim.com-437215.jpg"
        },
        {
            "src" : " https://www.desktopbackground.org/download/o/2012/06/27/412199_nice-beautiful-hd-wallpapers-of-snowfall-1024x819-jpg_1024x819_h.jpg"
        },
        {
            "src" : "../Assets/pic0.jpg"
        }
    ]
}