{
  "tests" : [ {
    "name" : "unos.gspec",
    "startedAt" : 1573658102381,
    "endedAt" : 1573658114454,
    "failed" : false,
    "statistic" : {
      "passed" : 45,
      "errors" : 0,
      "warnings" : 0,
      "total" : 45
    },
    "testId" : "1-unos.gspec",
    "duration" : 12073,
    "failed" : false
  } ]
}